.ifndef	TUNABLES_I
TUNABLES_I = 1

.include        "system/fds.i"

FDS_SLEEP_SHORT_TIME	= 22
FDS_SLEEP_SHORT_DEC	= 1

FDS_SLEEP_LONG_TIME	= 254

FDS_DRIVE_WAIT_MS       = 150

NMI_LIST_END	= FDSBIOS_PPU_LIST_END

.endif	; TUNABLES_I
